Division,WeightClassKg,Place,Name,Team,BodyweightKg,Best3SquatKg,Best3BenchKg,Best3DeadliftKg,TotalKg,Equipment,Event,Sex
Boys,52,1,Leo Martinez,Rio Grande City,50.98,142.88,90.72,147.42,381.02,Single-ply,SBD,M
Boys,52,2,Javier Farias,Mission,51.07,120.2,54.43,156.49,331.12,Single-ply,SBD,M
Boys,52,3,Jesus Puente,La Joya Palmview,47.63,95.25,65.77,117.93,278.96,Single-ply,SBD,M
Boys,52,4,Tommy Livigni,McAllen Memorial,48.72,47.63,38.56,70.31,156.49,Single-ply,SBD,M
Boys,56,1,Ivan Acher,McAllen Memorial,54.34,86.18,90.72,133.81,310.71,Single-ply,SBD,M
Boys,56,DQ,Jaime Martinez,Mission,55.61,106.59,70.31,,,Single-ply,SBD,M
Boys,56,DQ,Carlos Avila,La Joya,53.43,,,,,Single-ply,SBD,M
Boys,60,1,Robert Saenz,Sharyland Pioneer,58.42,185.97,122.47,176.9,485.34,Single-ply,SBD,M
Boys,60,2,Marcus Silva,McAllen Memorial,58.33,161.03,90.72,183.7,435.45,Single-ply,SBD,M
Boys,60,3,Eduardo Elizondo,Rio Grande City Grulla,59.87,133.81,97.52,149.69,381.02,Single-ply,SBD,M
Boys,60,4,Andrew Elizarraras,McAllen,59.24,129.27,74.84,140.61,344.73,Single-ply,SBD,M
Boys,60,5,Kameron Maples,McAllen Memorial,58.88,99.79,86.18,138.35,324.32,Single-ply,SBD,M
Boys,60,6,Samuel Garza,Mission Sharyland,59.78,106.59,61.23,127.01,294.84,Single-ply,SBD,M
Boys,67.5,1,Abraham Hernandez,La Joya Palmview,65.32,235.87,117.93,249.48,603.28,Single-ply,SBD,M
Boys,67.5,2,Sergio Guerrero,Mission Veterans Memorial,65.5,217.72,104.33,206.38,528.44,Single-ply,SBD,M
Boys,67.5,3,Roberto Martínez,Mission,64.59,197.31,115.67,192.78,505.76,Single-ply,SBD,M
Boys,67.5,4,Kevin Alanis,La Joya,65.68,192.78,108.86,185.97,487.61,Single-ply,SBD,M
Boys,67.5,5,Bryan Rodriguez,La Joya Juarez-Lincoln,62.41,204.12,102.06,174.63,480.81,Single-ply,SBD,M
Boys,67.5,6,Moses Olivarez,McAllen Memorial,63.87,181.44,108.86,183.7,474,Single-ply,SBD,M
Boys,67.5,7,Ricardo Pena,Rio Grande City,66.13,172.37,117.93,167.83,458.13,Single-ply,SBD,M
Boys,67.5,8,Esai Marez,Mission Sharyland,63.41,156.49,97.52,190.51,444.52,Single-ply,SBD,M
Boys,67.5,9,Angel Jaime,Mission Veterans Memorial,66.04,165.56,79.38,197.31,442.25,Single-ply,SBD,M
Boys,67.5,10,Victor Rodriguez,Mission,63.23,163.29,102.06,165.56,430.91,Single-ply,SBD,M
Boys,67.5,11,Santino Pascual,Mission Sharyland,66.77,172.37,90.72,158.76,421.84,Single-ply,SBD,M
Boys,67.5,12,Emilano Becceril,Mission Sharyland,66.41,167.83,86.18,149.69,403.7,Single-ply,SBD,M
Boys,67.5,13,Carlos Gonzalez,Sharyland Pioneer,66.5,156.49,86.18,156.49,399.16,Single-ply,SBD,M
Boys,67.5,14,Ethan Inocando,Mission Sharyland,63.05,136.08,61.23,149.69,347,Single-ply,SBD,M
Boys,67.5,15,Ruben Saenz,McAllen Rowe,61.51,124.74,70.31,131.54,326.59,Single-ply,SBD,M
Boys,67.5,DQ,Eduardo Tijerina,Sharyland Pioneer,65.86,145.15,79.38,,,Single-ply,SBD,M
Boys,67.5,DQ,Jaaziel Espinoza,McAllen,66.95,161.03,106.59,,,Single-ply,SBD,M
Boys,75,1,Jaziah Escamilla,McAllen Memorial,73.57,215.46,136.08,222.26,573.79,Single-ply,SBD,M
Boys,75,2,Jacob Pina,La Joya Palmview,67.31,217.72,117.93,208.65,544.31,Single-ply,SBD,M
Boys,75,3,Coy Barrows,Sharyland Pioneer,67.31,201.85,115.67,204.12,521.63,Single-ply,SBD,M
Boys,75,4,Jonthon Casarez,Rio Grande City,68.13,183.7,120.2,195.04,498.95,Single-ply,SBD,M
Boys,75,5,Michael Agilar,McAllen,72.39,170.1,129.27,195.04,494.42,Single-ply,SBD,M
Boys,75,6,Brandon Manteca,McAllen Memorial,74.12,170.1,120.2,176.9,467.2,Single-ply,SBD,M
Boys,75,7,Jacob Trevino,Sharyland Pioneer,72.12,170.1,97.52,158.76,426.38,Single-ply,SBD,M
Boys,75,8,Adrian Villarreal,Mission Veterans Memorial,74.48,156.49,90.72,149.69,396.89,Single-ply,SBD,M
Boys,75,9,André Garcia,McAllen,68.95,136.08,99.79,151.95,387.82,Single-ply,SBD,M
Boys,75,DQ,Eiberto Villarreal,Mission Veterans Memorial,73.21,142.88,95.25,,,Single-ply,SBD,M
Boys,75,DQ,Marco Flores,Mission Veterans Memorial,72.94,151.95,,,,Single-ply,SBD,M
Boys,82.5,1,Ulyesses Vasquez,McAllen Memorial,81.1,201.85,142.88,231.33,576.06,Single-ply,SBD,M
Boys,82.5,2,Joel Pina,La Joya Palmview,81.1,217.72,136.08,219.99,573.79,Single-ply,SBD,M
Boys,82.5,3,Anibal Espinoza,La Joya,81.92,219.99,113.4,208.65,542.04,Single-ply,SBD,M
Boys,82.5,4,Roberto Farias,Mission Sharyland,80.92,235.87,120.2,183.7,539.77,Single-ply,SBD,M
Boys,82.5,5,Leo Garza,La Joya,75.84,226.8,124.74,185.97,537.51,Single-ply,SBD,M
Boys,82.5,6,Alfredo Perez,La Joya,81.37,206.38,99.79,199.58,505.76,Single-ply,SBD,M
Boys,82.5,7,Brandon Mireles,Mission Sharyland,82.1,170.1,106.59,213.19,489.88,Single-ply,SBD,M
Boys,82.5,8,Brandon Quintanilla,Mission Sharyland,79.83,163.29,111.13,190.51,464.93,Single-ply,SBD,M
Boys,82.5,9,James Gulley,Mission Veterans Memorial,78.29,165.56,77.11,165.56,408.23,Single-ply,SBD,M
Boys,82.5,10,Jose Sanchez,Rio Grande City Grulla,78.74,145.15,72.57,145.15,362.87,Single-ply,SBD,M
Boys,82.5,11,Moises Pena,Rio Grande City Grulla,78.83,138.35,95.25,124.74,358.34,Single-ply,SBD,M
Boys,82.5,DQ,Jeremiah Pena,Sharyland Pioneer,81.83,,,,,Single-ply,SBD,M
Boys,90,1,Obed Hernandez,Sharyland Pioneer,88.18,272.16,142.88,240.4,655.44,Single-ply,SBD,M
Boys,90,2,Dylan Earhart,McAllen Memorial,89.72,219.99,120.2,210.92,551.11,Single-ply,SBD,M
Boys,90,3,Juan Rodriguez,Mission,88,192.78,120.2,219.99,532.97,Single-ply,SBD,M
Boys,90,4,Ryan Alvarez,Rio Grande City,86.55,208.65,115.67,188.24,512.56,Single-ply,SBD,M
Boys,90,5,Michael Morales,McAllen Rowe,85.73,185.97,115.67,181.44,483.08,Single-ply,SBD,M
Boys,90,6,Isaac Garza,Mission Veterans Memorial,83.73,183.7,90.72,165.56,439.98,Single-ply,SBD,M
Boys,90,7,Jose Quintero,McAllen Rowe,88,61.23,102.06,68.04,231.33,Single-ply,SBD,M
Boys,90,DQ,Joe Ramos,Rio Grande City Grulla,85.18,167.83,113.4,,,Single-ply,SBD,M
Boys,100,1,Fernando Hernandez,La Joya Juarez-Lincoln,90.54,260.82,154.22,260.82,675.85,Single-ply,SBD,M
Boys,100,2,Carlos Zarate,Mission Sharyland,95.62,244.94,147.42,260.82,653.17,Single-ply,SBD,M
Boys,100,3,Nathan Hernandez,McAllen Rowe,90.63,226.8,167.83,238.14,632.76,Single-ply,SBD,M
Boys,100,4,Joel Moreno,Mission Sharyland,91.35,231.33,124.74,244.94,601.01,Single-ply,SBD,M
Boys,100,5,Reynaldo Hernandez,La Joya,95.35,233.6,158.76,204.12,596.47,Single-ply,SBD,M
Boys,100,6,Eddie Hernandez,La Joya Juarez-Lincoln,92.8,229.06,147.42,213.19,589.67,Single-ply,SBD,M
Boys,100,7,Eddie Garza,Rio Grande City,98.79,215.46,149.69,217.72,582.87,Single-ply,SBD,M
Boys,100,8,Jeremiah Ramon,Rio Grande City,97.34,190.51,117.93,204.12,512.56,Single-ply,SBD,M
Boys,100,9,Amadeo Salinas,McAllen,98.97,181.44,142.88,188.24,512.56,Single-ply,SBD,M
Boys,100,DQ,Jose Rangel,La Villa,90.63,204.12,,,,Single-ply,SBD,M
Boys,110,1,Aliver Chapa,La Joya Juarez-Lincoln,104.69,263.08,163.29,244.94,671.32,Single-ply,SBD,M
Boys,110,2,Jarome Torres,McAllen Memorial,107.59,260.82,158.76,226.8,646.37,Single-ply,SBD,M
Boys,110,3,Gilbert Romero,La Joya Juarez-Lincoln,101.15,249.48,151.95,215.46,616.89,Single-ply,SBD,M
Boys,110,4,Miguel Salazar,Rio Grande City Grulla,107.86,215.46,124.74,201.85,542.04,Single-ply,SBD,M
Boys,110,5,Juan Martinez,La Joya Juarez-Lincoln,108.86,208.65,127.01,197.31,532.97,Single-ply,SBD,M
Boys,110,6,Roberto Barba,La Joya Palmview,107.77,226.8,113.4,185.97,526.17,Single-ply,SBD,M
Boys,110,7,Luis Garcia,Rio Grande City Grulla,106.32,199.58,129.27,188.24,517.1,Single-ply,SBD,M
Boys,110,8,Andrew Lopez,Rio Grande City Grulla,109.32,197.31,133.81,185.97,517.1,Single-ply,SBD,M
Boys,110,9,Norberto Salinas,McAllen Rowe,104.78,154.22,129.27,185.97,469.47,Single-ply,SBD,M
Boys,110,DQ,Arturo Pena,La Joya Palmview,106.05,,,,,Single-ply,SBD,M
Boys,110,DQ,Anthony Zapata,Sharyland Pioneer,109.13,,,,,Single-ply,SBD,M
Boys,125,1,Jesus Proa,La Joya Juarez-Lincoln,118.02,288.03,174.63,240.4,703.07,Single-ply,SBD,M
Boys,125,2,Luis Salinas,Rio Grande City,120.02,244.94,176.9,258.55,680.39,Single-ply,SBD,M
Boys,125,3,Joshua Williams,Mission Sharyland,115.03,247.21,142.88,240.4,630.49,Single-ply,SBD,M
Boys,125,4,Ferando Robles,Rio Grande City,110.68,226.8,131.54,244.94,603.28,Single-ply,SBD,M
Boys,125,5,Eduardo Lopez,Rio Grande City Grulla,114.85,199.58,136.08,213.19,548.85,Single-ply,SBD,M
Boys,125,6,Juan Hernandez #6,McAllen Memorial,118.3,201.85,133.81,199.58,535.24,Single-ply,SBD,M
Boys,125,7,Diego Mexicano,Mission Sharyland,122.2,210.92,108.86,210.92,530.7,Single-ply,SBD,M
Boys,125,8,Rey Ramirez,Mission Veterans Memorial,113.67,192.78,102.06,195.04,489.88,Single-ply,SBD,M
Boys,125,9,Sergio Reyna,McAllen Memorial,115.12,183.7,120.2,185.97,489.88,Single-ply,SBD,M
Boys,125,10,Steven Alvarez,Mission,110.31,183.7,95.25,156.49,435.45,Single-ply,SBD,M
Boys,125,11,Esau Guerra,Rio Grande City Grulla,114.21,167.83,99.79,158.76,426.38,Single-ply,SBD,M
Boys,125+,1,Arturo Ochoa,McAllen,129.55,272.16,163.29,226.8,662.24,Single-ply,SBD,M
Boys,125+,2,Alex Rodriguez,La Joya,140.25,263.08,138.35,215.46,616.89,Single-ply,SBD,M
Boys,125+,3,Moises Morales,La Joya Palmview,130,249.48,120.2,219.99,589.67,Single-ply,SBD,M
Boys,125+,4,Marco Rangel,La Joya Palmview,160.48,210.92,136.08,217.72,564.72,Single-ply,SBD,M
Boys,125+,5,Victor Anzaldua,Mission Veterans Memorial,148.23,204.12,122.47,204.12,530.7,Single-ply,SBD,M
Boys,125+,DQ,Julian Vela,Mission,125.74,210.92,133.81,,,Single-ply,SBD,M
